[
    {
    "dbn": "01M292",
    "school_name": "Orchard Collegiate Academy (Henry Street School)",
    "boro": "M",
    "overview_paragraph": "Founded by the Asia Society, our school helps students acquire the knowledge and skills needed to prepare for college and/or careers while in pursuit of knowledge of the histories, economies, and languages of world regions. Teachers and other adults who make up the learning community forge supportive relationships with students and parents while providing challenging and engaging learning experiences. Our school partners with various community, arts, and business organizations to help students achieve success. Our theme of international studies extends beyond the classroom, where students participate in ongoing Â‘Advisory Day OutÂ’ excursions where the multiculturalism of NYC becomes the classroom.",
    "ell_programs": "English as a New Language",
    "language_classes": "Spanish",
    "advancedplacement_courses": "AP US History",
    "neighborhood": "Lower East Side",
    "shared_space": "Yes",
    "building_code": "M056",
    "location": "220 Henry Street, Manhattan NY 10002 (40.713362, -73.986051)",
    "phone_number": "212-406-9411",
    "fax_number": "212-406-9417",
    "school_email": "mdoyle9@schools.nyc.gov",
    "website": "http://schools.nyc.gov/SchoolPortals/01/M292/default.htm",
    "subway": "B, D to Grand St ; F to East Broadway ; J, M, Z to Delancey St-Essex St",
    "bus": "B39, M14A, M14D, M15, M15-SBS, M21, M22, M9, X14, X37, X38",
    "grades2018": "9-12",
    "finalgrades": "9-12",
    "total_students": "185",
    "start_time": "8:20pm",
    "end_time": "3:55pm",
    "psal_sports_boys": "Basketball",
    "school_sports": "Boxing, Soccer, Wrestling",
    "graduation_rate": "0.638999999",
    "attendance_rate": "0.769999981",
    "pct_stu_enough_variety": "0.699999988",
    "college_career_rate": "0.261999995",
    "pct_stu_safe": "0.730000019",
    "school_accessibility_description": "1",
    "offer_rate1": "Â—5% of offers went to this group",
    "program1": "Orchard Collegiate Academy",
    "code1": "M46X",
    "primary_address_line_1": "220 Henry Street",
    "city": "Manhattan",
    "zip": "10002",
    "state_code": "NY",
    "latitude": "40.71336",
    "longitude": "-73.9861"
    },
    {
    "dbn": "01M448",
    "school_name": "University Neighborhood High School",
    "boro": "M",
    "overview_paragraph": "We are a small, inclusive school guided by 4 pillars: Honor, Excellence, Curiosity, and Celebration. 98% of our students go to college. Students engage in a college-bound academic program of Regents, AP, College Now courses, and study Chinese, Korean, or Japanese. We offer a robust after-school club culture supported by our student government. We encourage acts of kindness through RachelÂ’s Challenge, an anti-bullying program. Our Parent Coordinator keeps parents informed through biweekly postcards, a newsletter, and First Fridays. Grades and progress reports are available online. Seniors attend college prep classes; juniors can take onsite Kaplan SAT prep courses. Our NEST program provides significant individual support for students with autism.",
    "school_10th_seats": "1",
    "ell_programs": "English as a New Language",
    "language_classes": "Chinese (Mandarin), Spanish",
    "advancedplacement_courses": "AP Calculus, AP Chinese, AP English, AP Spanish, AP Studio Art, AP US Government and Politics",
    "neighborhood": "Lower East Side",
    "building_code": "M446",
    "location": "200 Monroe Street, Manhattan NY 10002 (40.712269, -73.984128)",
    "phone_number": "212-962-4341",
    "fax_number": "212-267-5611",
    "school_email": "KChu@schools.nyc.gov",
    "website": "www.universityneighborhoodhs.org",
    "subway": "F to East Broadway ; J, M, Z to Delancey St-Essex St",
    "bus": "M14A, M14D, M15, M21, M22, M9, X14, X37, X38",
    "grades2018": "9-12",
    "finalgrades": "9-12",
    "total_students": "343",
    "start_time": "8:15am",
    "end_time": "2:40pm",
    "addtl_info1": "Internships; Summer Orientation",
    "extracurricular_activities": "Basketball, Badminton, Handball, Glee, Dance, Weight Training, Ping Pong, Tennis, Step Team, Tutoring, Lunchtime Tutoring, Saturday SAT Prep, Saturday Regents Prep, ESL Saturday Academy, Regents Prep, National Honor Society, Council for Unity, Young WomenÂ’s Empowerment, Student Assistance Services, Aviation, Book, Chess, Robotics, Computer, Spanish, Student Government, Art, Audio, Music, Digital Art Studio, Guitar and Piano, Literary Magazine, Murals, Video, and Cooking.",
    "psal_sports_boys": "Basketball, Bowling, Handball",
    "psal_sports_girls": "Bowling, Softball",
    "graduation_rate": "0.842999995",
    "attendance_rate": "0.879999995",
    "pct_stu_enough_variety": "0.75999999",
    "college_career_rate": "0.662",
    "pct_stu_safe": "0.910000026",
    "prgdesc1": "An interdisciplinary, project-based program, with advisories, art and music electives, community service requirements and learning centers.",
    "prgdesc2": "Students with limited English are taught by bilingual Mandarin speaking teachers in all core subjects and get extra support during Academic Intervention Services (AIS).",
    "prgdesc3": "University Neighborhood Early College (UNEC) is designed for students interested in pursuing a career in business. UNEC provides rigorous curriculum with individualized academic supports, enabling students to earn a High School diploma and up to 24 college credits through City University of New York (CUNY) Baruch College within 4 years.",
    "city": "Manhattan",
    "zip": "10002",
    "state_code": "NY",
    "latitude": "40.71227",
    "longitude": "-73.9841"
    },
    {
        "dbn": "08X282",
        "school_name": "Women's Academy of Excellence",
        "boro": "X",
        "overview_paragraph": "The WomenÂ’s Academy of Excellence is an all-girls public high school, serving grades 9-12. Our mission is to create a community of lifelong learners, to nurture the intellectual curiosity and creativity of young women and to address their developmental needs. The school community cultivates dynamic, participatory learning, enabling students to achieve academic success at many levels, especially in the fields of math, science, and civic responsibility. Our scholars are exposed to a challenging curriculum that encourages them to achieve their goals while being empowered to become young women and leaders. Our Philosophy is GIRLS MATTER!",
        "ell_programs": "English as a New Language",
        "language_classes": "Spanish",
        "diplomaendorsements": "Science",
        "neighborhood": "Castle Hill-Clason Point",
        "shared_space": "Yes",
        "building_code": "X174",
        "location": "456 White Plains Road, Bronx NY 10473 (40.815043, -73.85607)",
        "phone_number": "718-542-0740",
        "fax_number": "718-542-0841",
        "school_email": "sburns@schools.nyc.gov",
        "website": "schools.nyc.gov/SchoolPortals/08/X282",
        "subway": "N/A",
        "bus": "Bx22, Bx27, Bx36, Bx39, Bx5",
        "grades2018": "9-12",
        "finalgrades": "9-12",
        "total_students": "338",
        "start_time": "8:20am",
        "end_time": "2:45pm",
        "addtl_info1": "Community Service Expected; Online Grading System; Saturday Programs; Student/Parent Orientation; Uniform",
        "extracurricular_activities": "Academy of Health, Advisory, Annual Breast Cancer Walk, Purses for Life, Ambassadors, Conflict Resolution Program-Effective Alternatives in Reconciliation Services (EARS), Peer Tutoring, Student Government, Step Team, Cheerleading, Big Sister/Little Sister Program, Chorus",
        "psal_sports_boys": "Baseball, Basketball, Cross Country, Fencing",
        "psal_sports_girls": "Basketball, Cross Country, Indoor Track, Outdoor Track, Softball, Volleyball",
        "psal_sports_coed": "Stunt",
        "graduation_rate": "0.612999976",
        "attendance_rate": "0.790000021",
        "pct_stu_enough_variety": "0.330000013",
        "college_career_rate": "0.486000001",
        "pct_stu_safe": "0.629999995",
        "girls": "1",
        "primary_address_line_1": "456 White Plains Road",
        "city": "Bronx",
        "zip": "10473",
        "state_code": "NY",
        "latitude": "40.81504",
        "longitude": "-73.8561"
    },
    {
        "dbn": "17K548",
        "school_name": "Brooklyn School for Music & Theatre",
        "boro": "K",
        "overview_paragraph": "Brooklyn School for Music & Theatre (BSMT) uses our academic program to accommodate the intellectual, social, and emotional needs of creative high school students. Our vision is to provide a model professional environment where respect is mutual, ideas are shared, and learning is not limited to the classroom. We prepare students for higher education through our rigorous academic program while simultaneously allowing them to develop professional careers in the music and theatre industries.",
        "school_10th_seats": "1",
        "academicopportunities1": "CTE program(s) in: Arts, A/V Technology & Communication",
        "academicopportunities2": "iLearnNYC: Program for expanded online coursework and self-paced learning",
        "academicopportunities3": "We offer highly competitive positions in our Drama, Chorus, and Dance Company classes",
        "academicopportunities4": "Students receive small group instruction focused on sharpening their skills while developing their professional portfolio for auditions",
        "ell_programs": "English as a New Language",
        "language_classes": "Spanish",
        "advancedplacement_courses": "AP English, AP Environmental Science, AP US History",
        "neighborhood": "Crown Heights South",
        "shared_space": "Yes",
        "campus_name": "Prospect Heights Educational Campus",
        "building_code": "K440",
        "location": "883 Classon Avenue, Brooklyn NY 11225 (40.669805, -73.960689)",
        "phone_number": "718-230-6250",
        "fax_number": "718-230-6262",
        "school_email": "prandaz@schools.nyc.gov",
        "website": "www.bkmusicntheatre.com",
        "subway": "2, 3, 4, 5 to Franklin Ave; B, Q to Prospect Park; F to Park Place; S to Botanic Garden",
        "bus": "B16, B41, B43, B44-SBS, B45, B48, B49, B69",
        "grades2018": "9-12",
        "finalgrades": "9-12",
        "total_students": "352",
        "start_time": "8:10am",
        "end_time": "3pm",
        "extracurricular_activities": "Chess, The Step Team, Fashion, Tech Team, WomenÂ’s Group; Extensive arts after-school program: Tech, Dance, Drama, and Chorus Companies; Crew program that trains students in running the lights, sound, video, and all backstage and pit crew responsibilities; Saturday and after-school classes for Regents Preparation; School Leadership Team; Student Government; At least three annual major school-wide productions; Two annual talent shows",
        "primary_address_line_1": "883 Classon Avenue",
        "city": "Brooklyn",
        "zip": "11225",
        "state_code": "NY",
        "latitude": "40.66981",
        "longitude": "-73.9607"
    }
    ]
